…
 group_by (age_group, sex, medcond_yn, death_yn) %>%
  count(death_yn)  %>%
  group_by (age_group, sex, medcond_yn) %>%
  mutate(death_rate = n*100/sum(n)) %>% 
  filter(death_yn=="Yes") %>% mutate(comorb = ifelse(medcond_yn=="No","Without Comorbidities","With Comorbidities"), death_rate = round(death_rate,1))

covid_data_deathrate1

## # A tibble: 36 x 7
## # Groups:   age_group, sex, medcond_yn [36]
##    age_group     sex    medcond_yn death_yn     n death_rate comorb             
##    <chr>         <chr>  <chr>      <chr>    <int>      <dbl> <chr>              
##  1 0 - 9 Years   Female No         Yes          4        0.1 Without Comorbidit…
##  2 0 - 9 Years   Female Yes        Yes          6        0.3 With Comorbidities 
##  3 0 - 9 Years   Male   No         Yes          4        0.1 Without Comorbidit…
##  4 0 - 9 Years   Male   Yes        Yes          5        0.2 With Comorbidities 
##  5 10 - 19 Years Female No         Yes          1        0   Without Comorbidit…
##  6 10 - 19 Years Female Yes        Yes         13        0.2 With Comorbidities 
##  7 10 - 19 Years Male   No         Yes          3        0   Without Comorbidit…
##  8 10 - 19 Years Male   Yes        Yes         16        0.3 With Comorbidities 
##  9 20 - 29 Years Female No         Yes          5        0   Without Comorbidit…
## 10 20 - 29 Years Female Yes        Yes         72        0.4 With Comorbidities 
## # … with 26 more rows
…
