…
Notice how you can use the functions specify and calculate again like you did for calculating confidence intervals. Here, though, the statistic you are searching for is the difference in means, with the order being yes - no != 0.

After you have initialized the test, you need to simulate the test on the null distribution, which we will save as null.

# Permutation test
null_dist <- yrbss_phys_weight %>%
  specify(weight ~ physical_3plus) %>%
  hypothesize(null = "independence") %>%
  generate(reps = 1000, type = "permute") %>%
  calculate(stat = "diff in means", order = c("yes", "no"))

null_dist

## # A tibble: 1,000 x 2
##    replicate    stat
##        <int>   <dbl>
##  1         1  0.377 
##  2         2 -0.609 
##  3         3 -0.277 
##  4         4 -0.241 
##  5         5 -0.120 
##  6         6  0.322 
##  7         7 -0.430 
##  8         8 -0.0116
##  9         9  0.405 
## 10        10  0.173 
## # … with 990 more rows
…
